module test

go 1.18

require github.com/gen2brain/beeep v0.0.0-20220909211152-5a9ec94374f6

require (
    github.com/go-toast/toast v0.0.0-20190211030409-01e6764cf0a4 // indirect
    github.com/godbus/dbus/v5 v5.1.0 // indirect
    github.com/nu7hatch/gouuid v0.0.0-20131221200532-179d4d0c4d8d // indirect
    github.com/tadvi/systray v0.0.0-20190226123456-11a2b8fa57af // indirect
    golang.org/x/sys v0.0.0-20220319134239-a9b59b0215f8 // indirect
)

